[
  {
    "_id": "gad",
    "_type": "dashboard",
    "_source": {
      "timeFrom": "now-2y",
      "kibanaSavedObjectMeta": {
        "searchSourceJSON": "{\"filter\":[{\"query\":{\"query_string\":{\"analyze_wildcard\":true,\"query\":\"*\"}}}]}"
      },
      "description": "",
      "timeRestore": true,
      "optionsJSON": "{\"darkTheme\":false}",
      "timeTo": "now",
      "uiStateJSON": "{\"P-2\":{\"vis\":{\"legendOpen\":false}},\"P-4\":{\"vis\":{\"legendOpen\":false}}}",
      "hits": 0,
      "version": 1,
      "title": "gad",
      "panelsJSON": "[{\"col\":1,\"id\":\"projets-par-groupe\",\"panelIndex\":1,\"row\":1,\"size_x\":5,\"size_y\":4,\"type\":\"visualization\"},{\"col\":1,\"id\":\"open-issues-per-project\",\"panelIndex\":2,\"row\":5,\"size_x\":6,\"size_y\":4,\"type\":\"visualization\"},{\"col\":7,\"id\":\"issues-per-week\",\"panelIndex\":4,\"row\":5,\"size_x\":6,\"size_y\":4,\"type\":\"visualization\"},{\"col\":6,\"id\":\"milestone-due\",\"panelIndex\":5,\"row\":1,\"size_x\":7,\"size_y\":4,\"type\":\"visualization\"}]"
    }
  },
  {
    "_id": "milestone",
    "_type": "search",
    "_source": {
      "title": "milestone",
      "description": "",
      "hits": 0,
      "columns": [
        "_source"
      ],
      "sort": [
        "@timestamp",
        "desc"
      ],
      "version": 1,
      "kibanaSavedObjectMeta": {
        "searchSourceJSON": "{\"index\":\"gitlab-a-day\",\"filter\":[],\"highlight\":{\"pre_tags\":[\"@kibana-highlighted-field@\"],\"post_tags\":[\"@/kibana-highlighted-field@\"],\"fields\":{\"*\":{}},\"require_field_match\":false,\"fragment_size\":2147483647},\"query\":{\"query_string\":{\"query\":\"_type:milestone AND milestone.due_date:[0 TO *]\",\"analyze_wildcard\":true}}}"
      }
    }
  },
  {
    "_id": "issues-per-week",
    "_type": "visualization",
    "_source": {
      "visState": "{\"title\":\"New Visualization\",\"type\":\"histogram\",\"params\":{\"shareYAxis\":true,\"addTooltip\":true,\"addLegend\":true,\"scale\":\"linear\",\"mode\":\"stacked\",\"times\":[],\"addTimeMarker\":false,\"defaultYExtents\":false,\"setYExtents\":false,\"yAxis\":{}},\"aggs\":[{\"id\":\"1\",\"type\":\"count\",\"schema\":\"metric\",\"params\":{}},{\"id\":\"2\",\"type\":\"date_histogram\",\"schema\":\"segment\",\"params\":{\"field\":\"@timestamp\",\"interval\":\"auto\",\"customInterval\":\"2h\",\"min_doc_count\":1,\"extended_bounds\":{}}}],\"listeners\":{}}",
      "description": "",
      "uiStateJSON": "{}",
      "kibanaSavedObjectMeta": {
        "searchSourceJSON": "{\"index\":\"gitlab-a-day\",\"query\":{\"query_string\":{\"query\":\"_type:issue\",\"analyze_wildcard\":true}},\"filter\":[]}"
      },
      "title": "issues per week",
      "version": 1
    }
  },
  {
    "_id": "milestone-due",
    "_type": "visualization",
    "_source": {
      "visState": "{\"title\":\"New Visualization\",\"type\":\"kibi_timeline\",\"params\":{\"groups\":[{\"id\":5000,\"groupLabel\":\"milestone\",\"color\":\"#6f87d8\",\"endField\":\"\",\"labelField\":\"milestone.title\",\"startField\":\"milestone.due_date\",\"savedSearchId\":\"milestone\",\"indexPatternId\":\"gitlab-a-day\"}],\"groupsOnSeparateLevels\":false,\"selectValue\":\"id\",\"notifyDataErrors\":false,\"syncTime\":false},\"aggs\":[],\"listeners\":{}}",
      "description": "",
      "uiStateJSON": "{}",
      "kibanaSavedObjectMeta": {
        "searchSourceJSON": "{\"query\":{\"query_string\":{\"query\":\"*\",\"analyze_wildcard\":true}},\"filter\":[]}"
      },
      "title": "milestone due",
      "version": 1
    }
  },
  {
    "_id": "open-issues-per-project",
    "_type": "visualization",
    "_source": {
      "visState": "{\"title\":\"New Visualization\",\"type\":\"histogram\",\"params\":{\"shareYAxis\":true,\"addTooltip\":true,\"addLegend\":true,\"scale\":\"linear\",\"mode\":\"stacked\",\"times\":[],\"addTimeMarker\":false,\"defaultYExtents\":false,\"setYExtents\":false,\"yAxis\":{}},\"aggs\":[{\"id\":\"1\",\"type\":\"avg\",\"schema\":\"metric\",\"params\":{\"field\":\"project.open_issues_count\"}},{\"id\":\"2\",\"type\":\"terms\",\"schema\":\"segment\",\"params\":{\"field\":\"project.name_with_namespace.raw\",\"size\":15,\"order\":\"desc\",\"orderBy\":\"1\"}}],\"listeners\":{}}",
      "description": "",
      "uiStateJSON": "{}",
      "kibanaSavedObjectMeta": {
        "searchSourceJSON": "{\"index\":\"gitlab-a-day\",\"query\":{\"query_string\":{\"query\":\"*\",\"analyze_wildcard\":true}},\"filter\":[]}"
      },
      "title": "open issues per project",
      "version": 1
    }
  },
  {
    "_id": "projets-par-groupe",
    "_type": "visualization",
    "_source": {
      "visState": "{\"title\":\"projets par groupe\",\"type\":\"pie\",\"params\":{\"addLegend\":true,\"addTooltip\":true,\"isDonut\":true,\"shareYAxis\":true},\"aggs\":[{\"id\":\"1\",\"type\":\"count\",\"schema\":\"metric\",\"params\":{}},{\"id\":\"2\",\"type\":\"terms\",\"schema\":\"segment\",\"params\":{\"field\":\"group.name.raw\",\"size\":50,\"order\":\"desc\",\"orderBy\":\"1\"}},{\"id\":\"3\",\"type\":\"terms\",\"schema\":\"segment\",\"params\":{\"field\":\"project.name_with_namespace.raw\",\"size\":50,\"order\":\"desc\",\"orderBy\":\"1\"}}],\"listeners\":{}}",
      "description": "",
      "uiStateJSON": "{}",
      "kibanaSavedObjectMeta": {
        "searchSourceJSON": "{\"index\":\"gitlab-a-day\",\"query\":{\"query_string\":{\"query\":\"_type:project\",\"analyze_wildcard\":true}},\"filter\":[]}"
      },
      "title": "projets par groupe",
      "version": 1
    }
  }
]